^C:\TEAMPROJECTSCASCADE\MEASUREMENT SOFTWARE\VTFA-WORKING\PYTHONNUMPY\NUMPY\FFT\FFTPACK.C
C:\TEAMPROJECTSCASCADE\MEASUREMENT SOFTWARE\VTFA-WORKING\PYTHONNUMPY\NUMPY\FFT\X64\DEBUG\FFTPACK.OBJ
C:\TEAMPROJECTSCASCADE\MEASUREMENT SOFTWARE\VTFA-WORKING\PYTHONNUMPY\NUMPY\FFT\X64\DEBUG\VC110.PDB
^C:\TEAMPROJECTSCASCADE\MEASUREMENT SOFTWARE\VTFA-WORKING\PYTHONNUMPY\NUMPY\FFT\FFTPACK_CYTHON.CPP
C:\TEAMPROJECTSCASCADE\MEASUREMENT SOFTWARE\VTFA-WORKING\PYTHONNUMPY\NUMPY\FFT\X64\DEBUG\FFTPACK_CYTHON.OBJ
C:\TEAMPROJECTSCASCADE\MEASUREMENT SOFTWARE\VTFA-WORKING\PYTHONNUMPY\NUMPY\FFT\X64\DEBUG\VC110.PDB
^C:\USERS\DEARMAN\APPDATA\LOCAL\TEMP\.NETFRAMEWORK,VERSION=V4.0.ASSEMBLYATTRIBUTES.CPP
C:\TEAMPROJECTSCASCADE\MEASUREMENT SOFTWARE\VTFA-WORKING\PYTHONNUMPY\NUMPY\FFT\X64\DEBUG\.NETFRAMEWORK,VERSION=V4.0.ASSEMBLYATTRIBUTES.OBJ
C:\TEAMPROJECTSCASCADE\MEASUREMENT SOFTWARE\VTFA-WORKING\PYTHONNUMPY\NUMPY\FFT\X64\DEBUG\VC110.PDB
