^C:\TEAMPROJECTSCASCADE\MEASUREMENT SOFTWARE\VTFA-WORKING\PYTHONNUMPY\NUMPY\FFT\X64\DEBUG\.NETFRAMEWORK,VERSION=V4.0.ASSEMBLYATTRIBUTES.OBJ|C:\TEAMPROJECTSCASCADE\MEASUREMENT SOFTWARE\VTFA-WORKING\PYTHONNUMPY\NUMPY\FFT\X64\DEBUG\FFTPACK.OBJ|C:\TEAMPROJECTSCASCADE\MEASUREMENT SOFTWARE\VTFA-WORKING\PYTHONNUMPY\NUMPY\FFT\X64\DEBUG\FFTPACK_CYTHON.OBJ
C:\TEAMPROJECTSCASCADE\MEASUREMENT SOFTWARE\VTFA-WORKING\PYTHONNUMPY\NUMPY\FFT\BIN\FFTPACK_LITE.ILK
C:\TEAMPROJECTSCASCADE\MEASUREMENT SOFTWARE\VTFA-WORKING\PYTHONNUMPY\NUMPY\FFT\BIN\FFTPACK_LITE.DLL
C:\TEAMPROJECTSCASCADE\MEASUREMENT SOFTWARE\VTFA-WORKING\PYTHONNUMPY\NUMPY\FFT\BIN\FFTPACK_LITE.PDB
