#Command: "C:\Program Files (x86)\Common Files\Intel\Intel Software Manager\intel64\intelremotemonserver.exe"
^C:\TEAMPROJECTSCASCADE\MEASUREMENT SOFTWARE\VTFA-WORKING\PYTHONNUMPY\NUMPY\NUMPYDOTNET\NPYACCESSLIB\NPY_ARRAY_ACCESS.CPP|C:\TEAMPROJECTSCASCADE\MEASUREMENT SOFTWARE\VTFA-WORKING\PYTHONNUMPY\NUMPY\NUMPYDOTNET\NPYACCESSLIB\NPY_UFUNC_ACCESS.CPP
C:\PROGRAM FILES (X86)\COMMON FILES\INTEL\INTEL SOFTWARE MANAGER\INTEL64\INTELREMOTEMONSERVER.INI
