#Command: "C:\Program Files (x86)\Common Files\Intel\Intel Software Manager\intel64\intelremotemonagent.exe" 
C:\USERS\DEARMAN\APPDATA\LOCAL\MICROSOFT\WINDOWS\CACHES\CVERSIONS.1.DB
C:\USERS\DEARMAN\APPDATA\LOCAL\MICROSOFT\WINDOWS\CACHES\{AFBF9F1A-8EE8-4C77-AF34-C647E37CA0D9}.1.VER0X0000000000000027.DB
C:\PROGRAM FILES (X86)\COMMON FILES\INTEL\INTEL SOFTWARE MANAGER\INTEL64\INTELREMOTEMONAGENT2.EXE
